r-dcm workshop – Estimating diagnostic classification models
…
3 attributes

Morphosyntactic rules

Cohesive rules

Lexical rules

ECPE data

library(dcmdata)

ecpe_data
#> # A tibble: 2,922 × 29
#>    resp_id    E1    E2    E3    E4    E5    E6    E7    E8    E9   E10   E11
#>      <int> <int> <int> <int> <int> <int> <int> <int> <int> <int> <int> <int>
#>  1       1     1     1     1     0     1     1     1     1     1     1     1
#>  2       2     1     1     1     1     1     1     1     1     1     1     1
#>  3       3     1     1     1     1     1     1     0     1     1     1     1
#>  4       4     1     1     1     1     1     1     1     1     1     1     1
#>  5       5     1     1     1     1     1     1     1     1     1     1     1
#>  6       6     1     1     1     1     1     1     1     1     1     1     1
#>  7       7     1     1     1     1     1     1     1     1     1     1     1
#>  8       8     0     1     1     1     1     1     0     1     1     1     0
#>  9       9     1     1     1     1     1     1     1     1     1     1     1
#> 10      10     1     1     1     1     0     0     1     1     1     1     1
#> # ℹ 2,912 more rows
#> # ℹ 17 more variables: E12 <int>, E13 <int>, E14 <int>, E15 <int>, E16 <int>,
#> #   E17 <int>, E18 <int>, E19 <int>, E20 <int>, E21 <int>, E22 <int>,
#> #   E23 <int>, E24 <int>, E25 <int>, E26 <int>, E27 <int>, E28 <int>

ECPE Q-matrix

ecpe_qmatrix
#> # A tibble: 28 × 4
#>    item_id morphosyntactic cohesive lexical
#>    <chr>             <int>    <int>   <int>
#>  1 E1                    1        1       0
#>  2 E2                    0        1       0
#>  3 E3                    1        0       1
#>  4 E4                    0        0       1
#>  5 E5                    0        0       1
#>  6 E6                    0        0       1
#>  7 E7                    1        0       1
#>  8 E8                    0        1       0
#>  9 E9                    0        0       1
#> 10 E10                   1        0       0
#> # ℹ 18 more rows
…
Run the setup chunk

Explore the ROAR-PA data and Q-matrix

How many items are in the data?

How many respondents are in the data?

How many attributes are measured?

ROAR-PA data
ROAR-PA Q-matrix

roarpa_data
#> # A tibble: 222 × 58
#>       id fsm_01 fsm_04 fsm_05 fsm_06 fsm_07 fsm_08 fsm_10 fsm_11 fsm_12 fsm_14
#>    <int>  <int>  <int>  <int>  <int>  <int>  <int>  <int>  <int>  <int>  <int>
#>  1   161      0      1      1      1      1      0      0      1      1      1
#>  2   226      0      1      0      1      0      0      1      0      1      0
#>  3   103      0      1      0      1      0      0      0      0      0      0
#>  4     7      1      1      0      0      1      0      0      0      1      1
#>  5   185      1      1      1      1      1      1      1      1      1      1
#>  6    36      1      1      1      1      1      1      1      1      1      1
#>  7   206      1      1      1      1      1      1      1      1      1      1
#>  8   115      1      1      1      1      1      1      1      1      1      1
#>  9   106      1      1      1      1      1      1      1      1      1      1
#> 10   205      1      1      1      1      0      0      1      1      1      1
#> # ℹ 212 more rows
#> # ℹ 47 more variables: fsm_15 <int>, fsm_16 <int>, fsm_17 <int>, fsm_18 <int>,
#> #   fsm_21 <int>, fsm_22 <int>, fsm_23 <int>, fsm_24 <int>, fsm_25 <int>,
#> #   lsm_01 <int>, lsm_02 <int>, lsm_04 <int>, lsm_05 <int>, lsm_06 <int>,
#> #   lsm_07 <int>, lsm_08 <int>, lsm_10 <int>, lsm_11 <int>, lsm_13 <int>,
#> #   lsm_15 <int>, lsm_16 <int>, lsm_17 <int>, lsm_18 <int>, lsm_19 <int>,
#> #   lsm_20 <int>, lsm_21 <int>, lsm_22 <int>, lsm_24 <int>, del_01 <int>, …

57 items

222 respondents

roarpa_qmatrix
#> # A tibble: 57 × 4
#>    item     lsm   del   fsm
#>    <chr>  <int> <int> <int>
#>  1 fsm_01     0     0     1
#>  2 fsm_04     0     0     1
#>  3 fsm_05     0     0     1
#>  4 fsm_06     0     0     1
#>  5 fsm_07     0     0     1
#>  6 fsm_08     0     0     1
#>  7 fsm_10     0     0     1
#>  8 fsm_11     0     0     1
#>  9 fsm_12     0     0     1
#> 10 fsm_14     0     0     1
#> # ℹ 47 more rows
…
Extracting item parameters

measr_extract() can be used to pull out components of an estimated model.

measr_extract(ecpe_lcdm, "item_param")
#> # A tibble: 74 × 5
#>    item_id type        attributes                coefficient       estimate
#>    <chr>   <chr>       <chr>                     <chr>           <rvar[1d]>
#>  1 E1      intercept   <NA>                      l1_0          0.82 ± 0.043
#>  2 E1      maineffect  morphosyntactic           l1_11         0.71 ± 0.035
#>  3 E1      maineffect  cohesive                  l1_12         0.65 ± 0.025
#>  4 E1      interaction morphosyntactic__cohesive l1_212        0.60 ± 0.084
#>  5 E2      intercept   <NA>                      l2_0          1.05 ± 0.028
#>  6 E2      maineffect  cohesive                  l2_12         1.24 ± 0.045
#>  7 E3      intercept   <NA>                      l3_0         -0.51 ± 0.069
#>  8 E3      maineffect  morphosyntactic           l3_11         0.84 ± 0.092
#>  9 E3      maineffect  lexical                   l3_13         0.41 ± 0.018
#> 10 E3      interaction morphosyntactic__lexical  l3_213        0.40 ± 0.108
#> # ℹ 64 more rows
…
Extracting respondent probabilities

measr_extract(ecpe_lcdm, "attribute_prob")
#> # A tibble: 2,922 × 4
#>    resp_id morphosyntactic cohesive lexical
#>    <chr>             <dbl>    <dbl>   <dbl>
#>  1 1               0.997     0.951   1.000 
#>  2 2               0.995     0.866   1.000 
#>  3 3               0.976     0.987   1.000 
#>  4 4               0.998     0.990   1.000 
#>  5 5               0.990     0.979   0.944 
#>  6 6               0.993     0.989   1.000 
#>  7 7               0.993     0.989   1.000 
#>  8 8               0.00208   0.403   0.973 
#>  9 9               0.953     0.984   0.998 
#> 10 10              0.701     0.0932  0.0847
#> # ℹ 2,912 more rows
…
