r-dcm workshop – Identifying model misspecifications
…
Too few attributes

What might some indicators be that we have included too few attributes in our model?

Some we’ll examine today:

Local independence: Item responses should be independent conditional on the respondent’s profile of proficiency

Residual correlations with Yen’s Q3

Residual correlations should all be relatively small (e.g., <.2)

yens_q3(ecpe_lcdm)
#> # A tibble: 378 × 4
#>    item_1 item_2 resid_corr flag 
#>    <chr>  <chr>       <dbl> <lgl>
#>  1 E1     E2       0.00496  FALSE
#>  2 E1     E3      -0.0332   FALSE
#>  3 E1     E4       0.0125   FALSE
#>  4 E1     E5       0.0213   FALSE
#>  5 E1     E6       0.0181   FALSE
#>  6 E1     E7       0.000101 FALSE
#>  7 E1     E8      -0.0240   FALSE
#>  8 E1     E9      -0.0341   FALSE
#>  9 E1     E10     -0.00660  FALSE
#> 10 E1     E11     -0.0262   FALSE
#> # ℹ 368 more rows
…
Evaluates how well an item is able to distinguish between attribute profiles

Item- and test-level discrimination (Henson & Douglas, 2005)

Attribute-level discrimination (Henson et al., 2008)

Higher is better, but no clear thresholds as values are dependent on the number of attributes, model that was estimated, etc.

Low values may indicate an item is not measuring what we intend (or not measuring well)

CDI with measr

cdi(ecpe_lcdm)
#> $item_discrimination
#> # A tibble: 28 × 5
#>    item_id overall morphosyntactic cohesive lexical
#>    <chr>     <dbl>           <dbl>    <dbl>   <dbl>
#>  1 E1       0.0685          0.0639   0.0497  0     
#>  2 E2       0.0491          0        0.102   0     
#>  3 E3       0.0956          0.144    0       0.0400
#>  4 E4       0.141           0        0       0.293 
#>  5 E5       0.0908          0        0       0.188 
#>  6 E6       0.0750          0        0       0.155 
#>  7 E7       0.247           0.383    0       0.0797
#>  8 E8       0.0633          0        0.131   0     
#>  9 E9       0.0920          0        0       0.191 
#> 10 E10      0.201           0.416    0       0     
#> # ℹ 18 more rows
…
Is the Q-matrix correct?

Are there other Q-matrices that might better explain the observed data

measr implements a general Q-matrix validation measure from de la Torre & Chiu (2016)

Assumes that the set of attributes is correct

Does not evaluate whether additional, fewer, or different attributes would be appropriate

Q-matrix validation with measr

qmatrix_validation(ecpe_lcdm)
#> # A tibble: 28 × 5
#>    item_id original_specification original_pvaf empirical_specification
#>    <chr>   <chr>                          <dbl> <chr>                  
#>  1 E1      [1, 1, 0]                      0.995 <NA>                   
#>  2 E2      [0, 1, 0]                      0.989 <NA>                   
#>  3 E3      [1, 0, 1]                      0.996 <NA>                   
#>  4 E4      [0, 0, 1]                      0.980 <NA>                   
#>  5 E5      [0, 0, 1]                      0.993 <NA>                   
#>  6 E6      [0, 0, 1]                      0.980 <NA>                   
#>  7 E7      [1, 0, 1]                      1.000 <NA>                   
#>  8 E8      [0, 1, 0]                      0.986 <NA>                   
#>  9 E9      [0, 0, 1]                      0.925 [1, 0, 1]              
#> 10 E10     [1, 0, 0]                      0.983 <NA>                   
#> # ℹ 18 more rows
#> # ℹ 1 more variable: empirical_pvaf <chr>
…
