r-dcm workshop – Diagnostic measurement models
…
3 attributes

Morphosyntactic rules

Cohesive rules

Lexical rules

ECPE data

library(dcmdata)

ecpe_data
#> # A tibble: 2,922 × 29
#>    resp_id    E1    E2    E3    E4    E5    E6    E7    E8    E9   E10   E11
#>      <int> <int> <int> <int> <int> <int> <int> <int> <int> <int> <int> <int>
#>  1       1     1     1     1     0     1     1     1     1     1     1     1
#>  2       2     1     1     1     1     1     1     1     1     1     1     1
#>  3       3     1     1     1     1     1     1     0     1     1     1     1
#>  4       4     1     1     1     1     1     1     1     1     1     1     1
#>  5       5     1     1     1     1     1     1     1     1     1     1     1
#>  6       6     1     1     1     1     1     1     1     1     1     1     1
#>  7       7     1     1     1     1     1     1     1     1     1     1     1
#>  8       8     0     1     1     1     1     1     0     1     1     1     0
#>  9       9     1     1     1     1     1     1     1     1     1     1     1
#> 10      10     1     1     1     1     0     0     1     1     1     1     1
#> # ℹ 2,912 more rows
#> # ℹ 17 more variables: E12 <int>, E13 <int>, E14 <int>, E15 <int>, E16 <int>,
#> #   E17 <int>, E18 <int>, E19 <int>, E20 <int>, E21 <int>, E22 <int>,
#> #   E23 <int>, E24 <int>, E25 <int>, E26 <int>, E27 <int>, E28 <int>

ECPE Q-matrix

ecpe_qmatrix
#> # A tibble: 28 × 4
#>    item_id morphosyntactic cohesive lexical
#>    <chr>             <int>    <int>   <int>
#>  1 E1                    1        1       0
#>  2 E2                    0        1       0
#>  3 E3                    1        0       1
#>  4 E4                    0        0       1
#>  5 E5                    0        0       1
#>  6 E6                    0        0       1
#>  7 E7                    1        0       1
#>  8 E8                    0        1       0
#>  9 E9                    0        0       1
#> 10 E10                   1        0       0
#> # ℹ 18 more rows
…
Run the setup chunk

Explore the PIE field test data and Q-matrix

How many items are in the data?

How many respondents are in the data?

How many attributes are measured?

PIE FT data
PIE Q-matrix

pie_ft_data
#> # A tibble: 172 × 16
#>    student `00592` `14415` `56400` `64967` `06238` `10231` `54596` `96748`
#>    <chr>     <int>   <int>   <int>   <int>   <int>   <int>   <int>   <int>
#>  1 8978593       1       1       1       1       1       0       1       1
#>  2 5231294       1       1       1       1       1       1       1       1
#>  3 3681220       1       1       1       1       1       1       1       1
#>  4 7763384       1       0       1       1       1       1       1       1
#>  5 1913897       1       1       1       1       1       1       1       1
#>  6 0692477       1       1       1       1       1       1       1       1
#>  7 6961042       1       1       0       1       1       1       1       1
#>  8 4241777       1       1       1       1       1       1       1       1
#>  9 3068583       1       1       1       1       1       1       1       1
#> 10 6607413       1       1       1       1       1       1       1       1
#> # ℹ 162 more rows
#> # ℹ 7 more variables: `97634` <int>, `13080` <int>, `27971` <int>,
#> #   `56741` <int>, `63088` <int>, `81175` <int>, `88063` <int>
…
Exercise 3

Create a specification for a new LCDM for the PIE FT data

Limit the model to only include intercepts, main effects, and two-way interactions

How is this model different from the original LCDM?

Examine possible parameters
Create specification

get_parameters(pie_lcdm_spec)
#> # A tibble: 31 × 4
#>    task  type       attributes coefficient
#>    <chr> <chr>      <chr>      <chr>      
#>  1 00592 intercept  <NA>       l1_0       
#>  2 00592 maineffect L1         l1_11      
#>  3 14415 intercept  <NA>       l2_0       
#>  4 14415 maineffect L1         l2_11      
#>  5 56400 intercept  <NA>       l3_0       
#>  6 56400 maineffect L1         l3_11      
#>  7 64967 intercept  <NA>       l4_0       
#>  8 64967 maineffect L1         l4_11      
#>  9 06238 intercept  <NA>       l5_0       
#> 10 06238 maineffect L2         l5_12      
#> # ℹ 21 more rows
…
